/* *************************************************************************** */
/*  */
/* Open Source License */
/* Copyright (c) 2019-2021 Nomadic Labs, <contact@nomadic-labs.com> */
/*  */
/* Permission is hereby granted, free of charge, to any person obtaining a */
/* copy of this software and associated documentation files (the "Software"), */
/* to deal in the Software without restriction, including without limitation */
/* the rights to use, copy, modify, merge, publish, distribute, sublicense, */
/* and/or sell copies of the Software, and to permit persons to whom the */
/* Software is furnished to do so, subject to the following conditions: */
/*  */
/* The above copyright notice and this permission notice shall be included */
/* in all copies or substantial portions of the Software. */
/*  */
/* THE SOFTWARE IS PROVIDED "AS IS", WITHOUT WARRANTY OF ANY KIND, EXPRESS OR */
/* IMPLIED, INCLUDING BUT NOT LIMITED TO THE WARRANTIES OF MERCHANTABILITY, */
/* FITNESS FOR A PARTICULAR PURPOSE AND NONINFRINGEMENT. IN NO EVENT SHALL */
/* THE AUTHORS OR COPYRIGHT HOLDERS BE LIABLE FOR ANY CLAIM, DAMAGES OR OTHER */
/* LIABILITY, WHETHER IN AN ACTION OF CONTRACT, TORT OR OTHERWISE, ARISING */
/* FROM, OUT OF OR IN CONNECTION WITH THE SOFTWARE OR THE USE OR OTHER */
/* DEALINGS IN THE SOFTWARE. */
/*  */
/* *************************************************************************** */

open ReactNative
open SettingsComponents

module OffBoardView = {
  module StateLenses = %lenses(
    type state = {
      confirm: bool,
      word: string,
    }
  )
  module OffboardForm = ReForm.Make(StateLenses)

  let styles = {
    open Style
    StyleSheet.create({
      "modal": style(
        ~width=642.->dp,
        ~paddingTop=40.->dp,
        ~paddingBottom=44.->dp,
        ~paddingHorizontal=135.->dp,
        (),
      ),
      "title": style(~marginBottom=4.->dp, ~textAlign=#center, ()),
      "text": style(~marginBottom=24.->dp, ~textAlign=#center, ()),
      "checkboxLabel": style(~marginBottom=24.->dp, ~alignItems=#flexStart, ()),
      "checkbox": style(~marginRight=14.->dp, ()),
    })
  }

  let useOffboardWallet = () => {
    let erase = ConfigContext.useEraseStorageAndBaseDir()
    let resetBackupFilePath = ConfigContext.useResetBackupFilePath()
    let resetSecrets = StoreContext.Secrets.useResetAll()
    let resetTokens = StoreContext.Tokens.useResetAll()
    let (_, destroy) = StoreContext.Beacon.useClient()

    () =>
      erase()->Promise.tapOk(() => {
        resetBackupFilePath()
        resetSecrets()
        resetTokens()
        {
          open Routes
          push(Accounts)
        }
        destroy()
      })
  }

  @react.component
  let make = (~closeAction) => {
    let offboardWallet = useOffboardWallet()

    let form: OffboardForm.api = OffboardForm.use(
      ~validationStrategy=OnDemand,
      ~schema={
        open OffboardForm.Validation
        Schema(true_(Confirm) + custom(({word}) => {
            let fieldState: ReSchema.fieldState =
              word == "wasabi" ? Valid : Error(I18n.Settings.danger_offboard_form_input_error)

            fieldState
          }, Word))
      },
      ~onSubmit=_ => {
        offboardWallet()->Promise.ignore
        None
      },
      ~initialState={confirm: false, word: ""},
      ~i18n=FormUtils.i18n,
      (),
    )

    let onSubmit = _ => form.submit()

    let formFieldsAreValids = FormUtils.formFieldsAreValids(form.fieldsState, form.validateFields)

    let closeButton = <ModalTemplate.HeaderButtons.Close onPress={_ => closeAction()} />

    <ModalTemplate.Base style={styles["modal"]} headerRight=closeButton>
      <View accessibilityRole=#form>
        <Typography.Headline style={styles["title"]}>
          {I18n.Settings.danger_offboard_form_title->React.string}
        </Typography.Headline>
        <Typography.Body1 colorStyle=#error fontWeightStyle=#black style={styles["text"]}>
          {I18n.Settings.danger_offboard_form_text->React.string}
        </Typography.Body1>
        <CheckboxItem
          style={styles["checkboxLabel"]}
          label=I18n.Settings.danger_offboard_form_checkbox_label
          labelFontWeightStyle=#regular
          value=form.values.confirm
          handleChange={form.handleChange(Confirm)}
        />
        <View>
          <ThemedTextInput
            value=form.values.word
            onValueChange={form.handleChange(Word)}
            placeholder=I18n.Settings.danger_offboard_form_input_placeholder
            hasError={form.getFieldError(Field(Word))->Option.isSome}
            onSubmitEditing=onSubmit
          />
          <FormError error=?{form.getFieldError(Field(Word))} />
        </View>
        <Buttons.SubmitPrimary
          text=I18n.Btn.confirm
          onPress=onSubmit
          style=FormStyles.formSubmit
          disabledLook={!formFieldsAreValids}
          danger=true
        />
      </View>
    </ModalTemplate.Base>
  }
}

module OffboardButton = {
  let styles = {
    open Style
    StyleSheet.create({
      "button": style(~width=104.->dp, ~height=34.->dp, ()),
    })
  }

  @react.component
  let make = () => {
    let (openAction, closeAction, wrapModal) = ModalAction.useModal()

    <>
      <Buttons.SubmitPrimary
        style={styles["button"]}
        text=I18n.Settings.danger_offboard_button
        onPress={_ => openAction()}
        danger=true
      />
      {wrapModal(<OffBoardView closeAction />)}
    </>
  }
}

module ResetView = {
  let styles = {
    open Style
    StyleSheet.create({
      "modal": style(
        ~width=642.->dp,
        ~paddingTop=40.->dp,
        ~paddingBottom=44.->dp,
        ~paddingHorizontal=135.->dp,
        (),
      ),
      "title": style(~marginBottom=4.->dp, ~textAlign=#center, ()),
      "text": style(~marginBottom=12.->dp, ~textAlign=#center, ()),
    })
  }

  @val external window: 'a = "window"

  @react.component
  let make = (~closeAction) => {
    let resetConfig = ConfigContext.useResetConfig()

    let onPress = _ => {
      resetConfig()
      System.reload()
    }

    let closeButton = <ModalTemplate.HeaderButtons.Close onPress={_ => closeAction()} />

    <ModalTemplate.Base style={styles["modal"]} headerRight=closeButton>
      <View accessibilityRole=#form>
        <Typography.Headline style={styles["title"]}>
          {I18n.Settings.danger_reset_confirm_title->React.string}
        </Typography.Headline>
        <Typography.Body1 style={styles["text"]}>
          {I18n.Settings.danger_reset_confirm_text->React.string}
        </Typography.Body1>
        <Buttons.SubmitPrimary
          text=I18n.Settings.danger_reset_confirm_button
          onPress
          style=FormStyles.formSubmit
          danger=true
        />
      </View>
    </ModalTemplate.Base>
  }
}

module ResetButton = {
  let styles = {
    open Style
    StyleSheet.create({
      "button": style(~width=104.->dp, ~height=34.->dp, ()),
    })
  }

  @react.component
  let make = () => {
    let (openAction, closeAction, wrapModal) = ModalAction.useModal()

    <>
      <Buttons.SubmitPrimary
        style={styles["button"]}
        text=I18n.Settings.danger_reset_button
        onPress={_ => openAction()}
        danger=true
      />
      {wrapModal(<ResetView closeAction />)}
    </>
  }
}

module StateLenses = %lenses(type state = {natviewerTest: string})
module TokenBalanceForm = ReForm.Make(StateLenses)

let styles = {
  open Style
  StyleSheet.create({
    "inner": style(~flex=1., ()),
    "row": style(~flex=1., ~flexDirection=#row, ~alignItems=#center, ()),
    "spacer": style(~height=32.->dp, ()),
    "columnLeft": style(~flexGrow=7., ~flexShrink=7., ~flexBasis=0.->dp, ()),
    "columnRight": style(~marginLeft=32.->dp, ()),
    "section": style(~marginBottom=8.->dp, ()),
  })
}

@react.component
let make = () =>
  <Block title=I18n.Settings.danger_title isLast=true>
    <View style={styles["inner"]}>
      <View style={styles["row"]}>
        <ColumnLeft style={styles["columnLeft"]}>
          <Typography.Body1 fontWeightStyle=#bold style={styles["section"]}>
            {I18n.Settings.danger_reset_section->React.string}
          </Typography.Body1>
          <Typography.Body1> {I18n.Settings.danger_reset_text->React.string} </Typography.Body1>
        </ColumnLeft>
        <ColumnRight style={styles["columnRight"]}> <ResetButton /> </ColumnRight>
      </View>
      <View style={styles["spacer"]} />
      <View style={styles["row"]}>
        <ColumnLeft style={styles["columnLeft"]}>
          <Typography.Body1 colorStyle=#error fontWeightStyle=#bold style={styles["section"]}>
            {I18n.Settings.danger_offboard_section->React.string}
          </Typography.Body1>
          <Typography.Body1 colorStyle=#error>
            {I18n.Settings.danger_offboard_text->React.string}
          </Typography.Body1>
        </ColumnLeft>
        <ColumnRight style={styles["columnRight"]}> <OffboardButton /> </ColumnRight>
      </View>
    </View>
  </Block>
