/* *************************************************************************** */
/*  */
/* Open Source License */
/* Copyright (c) 2019-2021 Nomadic Labs, <contact@nomadic-labs.com> */
/*  */
/* Permission is hereby granted, free of charge, to any person obtaining a */
/* copy of this software and associated documentation files (the "Software"), */
/* to deal in the Software without restriction, including without limitation */
/* the rights to use, copy, modify, merge, publish, distribute, sublicense, */
/* and/or sell copies of the Software, and to permit persons to whom the */
/* Software is furnished to do so, subject to the following conditions: */
/*  */
/* The above copyright notice and this permission notice shall be included */
/* in all copies or substantial portions of the Software. */
/*  */
/* THE SOFTWARE IS PROVIDED "AS IS", WITHOUT WARRANTY OF ANY KIND, EXPRESS OR */
/* IMPLIED, INCLUDING BUT NOT LIMITED TO THE WARRANTIES OF MERCHANTABILITY, */
/* FITNESS FOR A PARTICULAR PURPOSE AND NONINFRINGEMENT. IN NO EVENT SHALL */
/* THE AUTHORS OR COPYRIGHT HOLDERS BE LIABLE FOR ANY CLAIM, DAMAGES OR OTHER */
/* LIABILITY, WHETHER IN AN ACTION OF CONTRACT, TORT OR OTHERWISE, ARISING */
/* FROM, OUT OF OR IN CONNECTION WITH THE SOFTWARE OR THE USE OR OTHER */
/* DEALINGS IN THE SOFTWARE. */
/*  */
/* *************************************************************************** */

open ReactNative

type targetLayout = {
  x: float,
  y: float,
  width: float,
  height: float,
}

type openingStyle =
  | Top
  | TopRight

let styles = {
  open Style
  StyleSheet.create({
    "popover": style(~position=#absolute, ()),
    "popoverTop": style(~top=3.->dp, ~left=0.->dp, ~right=0.->dp, ()),
    "popoverTopRight": style(~top=3.->dp, ~right=0.->dp, ()),
  })
}

@react.component
let make = (
  ~isOpen=false,
  ~config: option<targetLayout>,
  ~openingStyle=Top,
  ~style as styleFromProp=?,
  ~keyPopover,
  ~pointerEvents=#boxNone,
  ~children,
) => {
  let (visible, animatedOpenValue) = AnimationHooks.useAnimationOpen(
    ~speed=80.,
    ~bounciness=0.,
    isOpen,
    _ => (),
  )

  <Portal>
    <View
      key=keyPopover
      style={Style.array([StyleSheet.absoluteFillObject, ReactUtils.displayOn(visible)])}
      pointerEvents>
      <Animated.View
        style={
          open Style
          style(
            ~position=#absolute,
            ~width=?switch openingStyle {
            | Top => config->Option.map(({width}) => width->dp)
            | TopRight => None
            },
            ~top=?config->Option.map(({y, height}) => (y +. height)->dp),
            ~left=?config->Option.map(({x, width}) =>
              switch openingStyle {
              | Top => x
              | TopRight => x +. width
              }->dp
            ),
            ~opacity=animatedOpenValue->Animated.StyleProp.float,
            ~transform=[
              translateY(
                ~translateY={
                  open Animated.Interpolation
                  animatedOpenValue->interpolate(
                    config(
                      ~inputRange=[0., 1.],
                      ~outputRange=switch openingStyle {
                      | Top => [-16., 0.]
                      | TopRight => [0., 0.]
                      }->fromFloatArray,
                      ~extrapolate=#clamp,
                      (),
                    ),
                  )
                }->Animated.StyleProp.float,
              ),
              scaleX(
                ~scaleX={
                  open Animated.Interpolation
                  animatedOpenValue->interpolate(
                    config(
                      ~inputRange=[0., 1.],
                      ~outputRange=switch openingStyle {
                      | Top => [1., 1.]
                      | TopRight => [0.9, 1.]
                      }->fromFloatArray,
                      ~extrapolate=#clamp,
                      (),
                    ),
                  )
                }->Animated.StyleProp.float,
              ),
              scaleY(
                ~scaleY={
                  open Animated.Interpolation
                  animatedOpenValue->interpolate(
                    config(
                      ~inputRange=[0., 1.],
                      ~outputRange=[0.9, 1.]->fromFloatArray,
                      ~extrapolate=#clamp,
                      (),
                    ),
                  )
                }->Animated.StyleProp.float,
              ),
            ],
            (),
          )->unsafeAddStyle({
            "transformOrigin": switch openingStyle {
            | Top => "top center"
            | TopRight => "top right"
            },
          })
        }>
        <View
          style={
            open Style
            arrayOption([
              Some(styles["popover"]),
              switch openingStyle {
              | Top => Some(styles["popoverTop"])
              | TopRight => Some(styles["popoverTopRight"])
              },
              styleFromProp,
            ])
          }>
          children
        </View>
      </Animated.View>
    </View>
  </Portal>
}

let usePopoverState = (~elementRef=?, ()) => {
  let pressableRef = switch elementRef {
  | Some(e) => e
  | None => React.useRef(Js.Nullable.null)
  }

  let (isOpen, setIsOpen) = React.useState(_ => false)
  let (popoverConfig, setPopoverConfig) = React.useState(_ => None)

  DocumentContext.useClickOutside(
    pressableRef,
    isOpen,
    React.useCallback1(_pressEvent => setIsOpen(_ => false), [setIsOpen]),
  )

  DocumentContext.useScroll(React.useCallback1(_scrollEvent => setIsOpen(_ => false), [setIsOpen]))

  let setClosed = () => setIsOpen(_ => false)

  let togglePopover = () => {
    pressableRef.current
    ->Js.Nullable.toOption
    ->Option.iter(pressableElement =>
      pressableElement->Pressable_.measureInWindow((~x, ~y, ~width, ~height) =>
        setPopoverConfig(_ => Some({x: x, y: y, width: width, height: height}))
      )
    )

    setIsOpen(isOpen => !isOpen)
  }

  (pressableRef, isOpen, popoverConfig, togglePopover, setClosed)
}
