/* *************************************************************************** */
/*  */
/* Open Source License */
/* Copyright (c) 2019-2021 Nomadic Labs, <contact@nomadic-labs.com> */
/*  */
/* Permission is hereby granted, free of charge, to any person obtaining a */
/* copy of this software and associated documentation files (the "Software"), */
/* to deal in the Software without restriction, including without limitation */
/* the rights to use, copy, modify, merge, publish, distribute, sublicense, */
/* and/or sell copies of the Software, and to permit persons to whom the */
/* Software is furnished to do so, subject to the following conditions: */
/*  */
/* The above copyright notice and this permission notice shall be included */
/* in all copies or substantial portions of the Software. */
/*  */
/* THE SOFTWARE IS PROVIDED "AS IS", WITHOUT WARRANTY OF ANY KIND, EXPRESS OR */
/* IMPLIED, INCLUDING BUT NOT LIMITED TO THE WARRANTIES OF MERCHANTABILITY, */
/* FITNESS FOR A PARTICULAR PURPOSE AND NONINFRINGEMENT. IN NO EVENT SHALL */
/* THE AUTHORS OR COPYRIGHT HOLDERS BE LIABLE FOR ANY CLAIM, DAMAGES OR OTHER */
/* LIABILITY, WHETHER IN AN ACTION OF CONTRACT, TORT OR OTHERWISE, ARISING */
/* FROM, OUT OF OR IN CONNECTION WITH THE SOFTWARE OR THE USE OR OTHER */
/* DEALINGS IN THE SOFTWARE. */
/*  */
/* *************************************************************************** */

open ReactNative

module CellAddress = Table.MakeCell({
  let style = {
    open Style
    style(~flexBasis=180.->dp, ~flexGrow=1., ~flexShrink=1., ())
  }
})

module CellAmount = Table.MakeCell({
  let style = {
    open Style
    style(~flexBasis=146.->dp, ())
  }
})

module CellDuration = Table.MakeCell({
  let style = {
    open Style
    style(~flexBasis=114.->dp, ())
  }
})

module CellReward = Table.MakeCell({
  let style = {
    open Style
    style(~flexBasis=160.->dp, ~flexGrow=1., ())
  }
})

module CellAction = Table.MakeCell({
  let style = {
    open Style
    style(~flexBasis=68.->dp, ~flexDirection=#row, ~alignItems=#center, ())
  }
})

module DelegateActionButton = {
  @react.component
  let make = (~action, ~icon, ~tooltip=?) => {
    let (openAction, closeAction, wrapModal) = ModalAction.useModal()
    let onPress = _ => openAction()

    <>
      <IconButton ?tooltip icon size=30. onPress /> {wrapModal(<DelegateView closeAction action />)}
    </>
  }
}

let memo = component =>
  React.memoCustomCompareProps(component, (prevPros, nextProps) =>
    prevPros["account"] == nextProps["account"]
  )

@react.component
let make = memo((~account: Account.t, ~delegateRequest) => {
  let aliases = StoreContext.Aliases.useGetAll()
  let balanceRequest = StoreContext.Balance.useLoad(~forceFetch=false, account.address)
  let delegateInfoRequest = StoreContext.DelegateInfo.useLoad(account.address)

  let theme = ThemeContext.useTheme()

  switch (delegateRequest: ApiRequest.t<_>) {
  | Done(Ok(Some(delegate)), _)
  | Loading(Some(Some(delegate))) =>
    <Table.Row.Bordered>
      <CellAddress>
        <Typography.Body1 numberOfLines=1> {account.name->React.string} </Typography.Body1>
      </CellAddress>
      <CellAmount>
        <Typography.Body1>
          {switch delegateInfoRequest {
          | Done(Ok(Some(delegateInfo)), _)
          | Loading(Some(Some(delegateInfo))) =>
            I18n.tez_amount(delegateInfo.initialBalance->Tez.toString)->React.string
          | Done(Ok(None), _)
          | Loading(Some(None))
          | Done(Error(_), _) => React.null
          | NotAsked
          | Loading(None) =>
            <ActivityIndicator
              animating=true
              size={ActivityIndicator_Size.exact(19.)}
              color=theme.colors.iconHighEmphasis
            />
          }}
        </Typography.Body1>
      </CellAmount>
      <CellAmount>
        <Typography.Body1>
          {switch balanceRequest {
          | Done(Ok(balance), _)
          | Loading(Some(balance)) =>
            I18n.tez_amount(balance->Tez.toString)->React.string
          | Done(Error(_error), _) => React.null
          | NotAsked
          | Loading(None) =>
            <ActivityIndicator
              animating=true
              size={ActivityIndicator_Size.exact(19.)}
              color=theme.colors.iconHighEmphasis
            />
          }}
        </Typography.Body1>
      </CellAmount>
      <CellAddress>
        {delegate
        ->AliasHelpers.getAliasFromAddress(aliases)
        ->Option.mapWithDefault(
          <Typography.Address numberOfLines=1>
            {(delegate :> string)->React.string}
          </Typography.Address>,
          alias =>
            <Typography.Body1 numberOfLines=1> {alias.name->React.string} </Typography.Body1>,
        )}
      </CellAddress>
      <CellDuration>
        <Typography.Body1 numberOfLines=1>
          {switch delegateInfoRequest {
          | Done(Ok(Some(delegateInfo)), _)
          | Loading(Some(Some(delegateInfo))) =>
            Js.Date.make()
            ->DateFns.differenceInDays(delegateInfo.timestamp)
            ->(days => DateFns.formatDuration({days: days}))
            ->React.string
          | Done(Ok(None), _)
          | Loading(Some(None))
          | Done(Error(_), _) => React.null
          | NotAsked
          | Loading(None) =>
            <ActivityIndicator
              animating=true
              size={ActivityIndicator_Size.exact(19.)}
              color=theme.colors.iconHighEmphasis
            />
          }}
        </Typography.Body1>
      </CellDuration>
      <CellReward>
        {switch delegateInfoRequest {
        | Done(Ok(Some({lastReward: Some(lastReward)})), _)
        | Loading(Some(Some({lastReward: Some(lastReward)}))) =>
          <Typography.Body1 colorStyle=#positive>
            {I18n.tez_op_amount("+", lastReward->Tez.toString)->React.string}
          </Typography.Body1>
        | Done(Ok(Some({lastReward: None})), _)
        | Loading(Some(Some({lastReward: None}))) =>
          <Typography.Body1> {"---"->React.string} </Typography.Body1>
        | Done(Ok(None), _)
        | Loading(Some(None))
        | Done(Error(_), _) => React.null
        | NotAsked
        | Loading(None) =>
          <Typography.Body1>
            <ActivityIndicator
              animating=true
              size={ActivityIndicator_Size.exact(19.)}
              color=theme.colors.iconHighEmphasis
            />
          </Typography.Body1>
        }}
      </CellReward>
      <CellAction>
        <DelegateActionButton
          action=Delegate.Edit(account, delegate)
          tooltip=("delegate_edit" ++ (account.address :> string), I18n.Menu.delegate_edit)
          icon=Icons.Change.build
        />
        <DelegateActionButton
          action=Delegate.Delete(account, delegate)
          tooltip=("delegate_delete" ++ (account.address :> string), I18n.Menu.delegate_delete)
          icon=Icons.Stop.build
        />
      </CellAction>
    </Table.Row.Bordered>
  | Done(_)
  | NotAsked
  | Loading(_) => React.null
  }
})
